ibbbbbbbbbbbbbh--gbbbbbbbbbbbbbbbbbbbbbj
d--------------------------------------c
d--------------------------------------c
d--------------------------------------c
d------------eaaaaf--------------------c
d------------gbbbbh--------------------c
d--------------------------------------c
d--------------------------------------c
d--------------------------------------c
d--------------------------------------c
d--------------------------------------c
d--------------------------------------c
d--------------------------------------c
d--------------------------------------c
d--------------------------------------c
d--------------------------------------c
d--------------------------------------c
d--------------------------------------c
d--------------------------------------c
d--------------------------------------c
d--------------------------------------c
d--------------------------------------c
d--------------------------------------c
d--------------------------------------c
d--------------------------------------c
d--------------------------------------c
d--------------------------------------c
d--------------------------------------c
d--------------------------------------c
d--------------------------------------c
d--------------------------------------c
d--------------------------------------c
d--------------------------------------c
d--------------------------------------c
d--------------------------------------c
d--------------------------------------c
d--------------------------------------c
d--------------------------------------c
d--------------------------------------c
d--------------------------------------c
d--------------------------------------c
d--------------------------------------c
d------------------v-v-----------------c
d-vvv----v----v--eaaaaf--v------v--vv--c
kaaaaaaaaaaaaaaaaluuuukaaaaaaaaaaaaaaaal
