ibbbbbbbbbbbbbbbbbbbbbbbbbbbbbbbbbbbbbbj
d--------------------------------------c
d--------------------------------------c
d--------vx-y-----------------------v-yc
d-------eaaaf------ef---------------eaal
d-------gpbph------cd---------------gbbj
d--------m-m-------cd----n-n-n-n-------c
d--------m-m-------cd----o-o-o-o-------c
d---n----m-m----n--cd------------------c
d---o----m-m----o--cd------------------c
d-------wm-mx------cd------------------c
d-------eqaqf------cd------------------c
d-------gpbph------cd------------------c
d--------m-m-------cd------------------c
d--------o-o-------cd------------------c
d---vv-wy-x-v-yv---cd------------------c
d--eaaaaaaaaaaaf---cd------------------c
d--gbbbbpbpbpbbh---cd------------------c
d-------m-m-m------cd------------------c
d----n--m-m-m--nx--cd------------------c
dx---m--m-m-m--mf--cd------------------c
kf---m--m-m-m--mh--cd------------------c
bh---m--m-m-m--m---cd------------------c
-----m--m-m-m--m---cd------------------c
-vy--m--o-m-m--m--ycd------------------c
aaf--m----m-o--m--ecd------------------c
ibh--m----o----m--gcd------------------c
d----m---------m---cd------------------c
d----m--n------m---cd---vv-wx-vyx------c
d--v-m--m---n--m---cd---eaaaaaaaf------g
d--aam--m-n-m--mf--cd---gbbbbbbbh-------
d----m--mvmym--mh--cd-------------------
d----o--eaqaf--m---cd---n-------n-------
d-------gpbph--m--vcd---m-------m--w-v--
dx-wv----m-m---m--elkf--m-------m--eaaaa
kaaaf----m-m---m--gbbh--m--v-w--m--gbbbj
ibbjd----m-m---m--------m--eaf--m------c
d--cd----m-m---o--------o--gbh--o------c
d--cdv---m-m----vx-ywv-x---------v-x---c
d--ckf---m-m---eaaaaaaaaf-------eaaf---c
d--gbh---m-m---gbbbbbbbbh--n-n--gbbh---c
d--------m-m---------------m-m---------c
d--------o-o-----x----y----m-m---------c
d--x-v-wy-x-ywx-veaaaaf-x-vm-m-vv-wx-yvc
d--eaaaaaaaaaaaaaluuuukaaaaf-eaaaaaaaaal
