ih--gbbbbbbbbbbbbbbbbbbbbbbbbbbbbbbbbbbj
d--------------------------------------c
d---------ef----------------ef---------c
d---------cd----------------cd---------c
d-ef------cd----------------cd---------c
d-gh------cd----------------cd---------c
d---------cd----------------cd---------c
d---------cd--------vz-yv---cd---------c
dyz-z-xv--cd--------eaaaf---cd---------c
kaaaaaaf--cd--------gjuih---cd---------c
ibbbbbbh--cd---------cud----cd---------c
d---------cd---------cud----cd---------c
d--ef-----cd---yz----cud----cd---------c
d--cd-----cd---ef----cud----cd---------c
d--cd-----cd---cd-zxycudy---cd-----y---c
d--cd-----cd---ckaaaalukaf--cdxz--ef---c
d--cd----zcdy--cibbbbbbbbh--ckaf--cd---c
d--cd----elkf--cd-----------cibh--cd---c
d--cd----gjih--cd-----------cd----cd---c
d--cd-----gh---cd---------z-cd----cd---c
d--cd----------cd---------eald---zcd---c
d--cd----------cd---------gbbh--eald---c
d--cd----------cdy-xzv----------gbjd---c
d--cd----------ckaaaaf------------cd--zc
d--cdwwy-zwy-xygbbbbbh------------cd--el
d--ckaaaaaaaaaf----------------vyzcd--gj
d--cibbbbbbbbbh-zx-yy-zv-------eaald---c
d--cd----------eaaaaaaaf-------cibjd---c
d--cd----------gbjibbjih-------cd-cd---c
d--gh------------cd--cd--------cd-cd---c
d------vz-xyv----cd--cdxzw-ywwzcd-gh---c
d------eaaaaf----cd--ckaaaaaaaald-----yc
d------gbbbjd----cd--gbbbbbjibbbh-----el
d----------cd---ycd--------cd---------gj
d----------cd---eld--------cd----------c
dywwzx-yv--cd---gjd--------cd-xwywzv---c
kaaaaaaaf--cd----cd--------ckaaaaaaf---c
ibbbbbbbh--cd----cd-yv-----gbbbbbbbh---c
d----------cd-z--ckaaf-----------------c
d--------y-ckaf--gbbbh--vz-v-----------c
d--------ealibh---------eaaf---yz------c
h--------gbjd-----------cibh---ef------c
-----------cd----vyx-zv-cd-----cd------c
---z-wywwz-cdy-zxeaaaaf-cdyxz-ycdz-zwwyc
aaaaaaaaaaalkaaaaluuuukalkaaaaalkaaaaaal
