bbbbbbbbbbbbbbbbbbbjibbbbbbbbbbbbbbbbbbj
-------------------cd------------------c
-vx-wxw--wx-wvx----cd------------------c
aaaaaaa-aaaaaaf----cd-----vw-w--v--vw--c
d-------------m----gh---weaaaf--eaaaa--c
d-------------m----||--aam--cdvxcd-----c
d-------------m----ef----m--ckaald-----c
d-------------m----cd----m--gbbbbh-ww--c
d--n-------n--m----cd----m---------aaa-c
d--m-------m--m----cd----m-------------c
d--o-w---v-o--m----gh----m-------------c
d--|-a-a-a-|--m----||----m-w-----w-----c
d--n-------n--m----ef----m-a--a--a-----c
d--m-------m--m----cd----m-------------c
d--o-------o--m----cd----m---------v-w-c
d-------------m----cd----m---------aaa-c
d-------v-wxw-m----gh---vm-w--vx-------c
d-------aaaaaam----||---amaaaaaa-------c
h-------------m----ef----m-------------c
---n----------m----cd----m-------------c
--wm----wv-v--m----cd----m---ww-v-wv-wvc
faaaaaaaaaaa--m----cd----m--aaaaaaaaaaac
d-------------m----gh----m-------------c
d-------------m----------m-------------c
d-----------wwm----------m-------------c
d--w--------aam----------m-----------v-c
d--aa---w-v---ma--------am-----------aac
d-------aaa---m----------m-------------c
d-------------m----------m-------------c
dxw--vw-------m----------m--w-----wv-xwc
daaaaaa-------m----w-----m--a-a--aaaaaac
d-------------m----aa----m-------------c
d-------------m----------m-------------c
d--w---vw-vv-wmv--------wmv-ww--wv--w--c
d--aaaaaaaaaaama--------amaaaaaaaaaaa--c
d-------------m----------m-------------c
d--n----------m----------m-------------c
d--o----------m----wv----m--n----------c
d--|----------m----aa----m--m----------c
d--n----wv--x-m----------m--o-----x--vwc
d--o----aaaaaam----------m-------aaaaaac
d-------------o----------o-------------g
d----------------v--wxw-----------------
d-w---wvw--w--w-veaaaaf-v--ww--vw-v--w--
kaaaaaaaaaaaaaaaaluuuukaaaaaaaaaaaaaaaaa
